<?xml version="1.0" encoding="UTF-8"?>
<svg id="Layer_1" xmlns="http://www.w3.org/2000/svg" xmlns:xlink="http://www.w3.org/1999/xlink" version="1.1" viewBox="0 0 21.6 22.7">
  <!-- Generator: Adobe Illustrator 29.0.0, SVG Export Plug-In . SVG Version: 2.1.0 Build 186)  -->
  <defs>
    <style>
      .st0 {
        fill: none;
      }

      .st1 {
        clip-path: url(#clippath-1);
      }

      .st2 {
        clip-path: url(#clippath-3);
      }

      .st3 {
        clip-path: url(#clippath-4);
      }

      .st4 {
        clip-path: url(#clippath-2);
      }

      .st5 {
        fill: #19364e;
      }

      .st6 {
        clip-path: url(#clippath);
      }
    </style>
    <clipPath id="clippath">
      <rect class="st0" y="5" width="21.6" height="12.2"/>
    </clipPath>
    <clipPath id="clippath-1">
      <rect class="st0" y="16.9" width="21.6" height="5.8"/>
    </clipPath>
    <clipPath id="clippath-2">
      <rect class="st0" x="2.1" width="4" height="4.4"/>
    </clipPath>
    <clipPath id="clippath-3">
      <rect class="st0" x="8.8" width="4" height="4.4"/>
    </clipPath>
    <clipPath id="clippath-4">
      <rect class="st0" x="15.5" width="4" height="4.4"/>
    </clipPath>
  </defs>
  <g class="st6">
    <path class="st5" d="M21.6,17.2c-1.3,0-1.5-1.4-3.6-1.4s-2.3,1.4-3.6,1.4-1.5-1.4-3.6-1.4-2.3,1.4-3.6,1.4-1.5-1.4-3.6-1.4S1.4,17.2,0,17.2v-3.6C0,12.4,1,11.5,2.3,11.5h.8v-5c0-.8.7-1.4,1.5-1.4s1.5.6,1.5,1.4v5h3.1v-5c0-.8.7-1.4,1.5-1.4s1.5.6,1.5,1.4v5h3.1v-5c0-.8.7-1.4,1.5-1.4s1.5.6,1.5,1.4v5h.8c1.3,0,2.3,1,2.3,2.1v3.6"/>
  </g>
  <g class="st1">
    <path class="st5" d="M21.1,23.1H.4C.2,23.1,0,22.9,0,22.7v-4.2c2.1,0,2.3-1.6,3.6-1.6s1.5,1.6,3.6,1.6,2.3-1.6,3.6-1.6,1.5,1.6,3.6,1.6,2.3-1.6,3.6-1.6,1.5,1.6,3.6,1.6v4.2c0,.3-.2.5-.4.5"/>
  </g>
  <g class="st4">
    <path class="st5" d="M4.6,4.3c-.8,0-1.4-.6-1.4-1.4C3.2,1.5,5,1.1,4.6,0c.5,0,1.4,1.3,1.4,2.5s-.6,1.8-1.4,1.8"/>
  </g>
  <g class="st2">
    <path class="st5" d="M10.8,4.3c-.8,0-1.4-.6-1.4-1.4,0-1.4,1.8-1.7,1.4-2.9.5,0,1.4,1.3,1.4,2.5s-.6,1.8-1.4,1.8"/>
  </g>
  <g class="st3">
    <path class="st5" d="M16.9,4.3c-.8,0-1.4-.6-1.4-1.4,0-1.4,1.8-1.7,1.4-2.9.5,0,1.4,1.3,1.4,2.5s-.6,1.8-1.4,1.8"/>
  </g>
</svg>