<?xml version="1.0" encoding="UTF-8"?>
<svg id="Layer_1" xmlns="http://www.w3.org/2000/svg" xmlns:xlink="http://www.w3.org/1999/xlink" version="1.1" viewBox="0 0 21.9 31.9">
  <!-- Generator: Adobe Illustrator 29.0.0, SVG Export Plug-In . SVG Version: 2.1.0 Build 186)  -->
  <defs>
    <style>
      .st0 {
        fill: none;
      }

      .st1 {
        fill: #19364e;
      }

      .st2 {
        clip-path: url(#clippath);
      }
    </style>
    <clipPath id="clippath">
      <rect class="st0" width="21.9" height="31.9"/>
    </clipPath>
  </defs>
  <g class="st2">
    <path class="st1" d="M.1,4.1C0,2.1,1.6,0,3.7,0c5.9,0,11.8,0,17.7,0,.3,0,.9,0,.8.4,0,7.8,0,15.7,0,23.5,0,.9-.9,1.2-1.7,1.2-.2.7-.2,1.4,0,2.1.4,0,1,0,1.3.4.5.4.4,1.2.3,1.7-.4.2-.8.1-1.3.1-3.2,0-6.5,0-9.7,0-.4,0-.6-.2-.5-.6.7-.3,1.5,0,2.2-.1,2.9,0,5.8,0,8.7,0-.2-.4-.5-.7-1-.6-3,0-6,0-9,0-.4,0-1.1,0-1-.5.3-.3.7-.2,1-.3,2.7,0,5.4,0,8.1,0v-.8h-9.9c0,1.6,0,3.2,0,4.8l-.2.2c-.8-.2-1.5-.6-2.2-.9-.7.3-1.5.7-2.2,1-.4-.7-.2-1.4-.3-2.2-1,0-2.1.1-3-.4-1.1-.6-1.9-1.8-1.8-3.1,0-7.3,0-14.6,0-22ZM2.6,27c.6.6,1.6.3,2.3.4,0-.2,0-.6,0-.8-.5,0-1.1.1-1.5-.3,0-.5.4-.6.8-.5,4.7,0,9.4,0,14.1,0,.6,0,1.4.2,1.5-.6-5.4,0-10.9,0-16.3,0-.9,0-1.5,1.1-.9,1.8ZM5.7,26.6c0,1.4,0,2.7,0,4.1.6-.3,1.1-.5,1.7-.7.6.1,1.2.5,1.7.7,0-1.3,0-2.7,0-4.1-1.1,0-2.3,0-3.4,0Z"/>
  </g>
</svg>