<?xml version="1.0" encoding="UTF-8"?>
<svg id="Layer_1" xmlns="http://www.w3.org/2000/svg" xmlns:xlink="http://www.w3.org/1999/xlink" version="1.1" viewBox="0 0 21.2 20.7">
  <!-- Generator: Adobe Illustrator 29.0.0, SVG Export Plug-In . SVG Version: 2.1.0 Build 186)  -->
  <defs>
    <clipPath id="clippath">
      <rect x="6.7" width="14.5" height="14.7" fill="none"/>
    </clipPath>
    <clipPath id="clippath-1">
      <rect y="6.7" width="14.7" height="14" fill="none"/>
    </clipPath>
  </defs>
  <g clip-path="url(#clippath)">
    <path d="M19,2C16.9,0,13.5,0,11.5,2l-2.5,2.5c-.4.4-.4,1,0,1.4.4.4,1,.4,1.4,0l2.5-2.5c3.2-3,7.8,1.5,4.8,4.8l-3,3c-1.5,1.5-4.2,1.2-5.3-.7-.3-.5-.9-.6-1.3-.3-1,.6-.2,1.8.5,2.4,1,1,2.4,1.5,3.8,1.5s2.7-.5,3.8-1.5l3-3c2.1-2,2.1-5.5,0-7.5Z" fill="#fff"/>
  </g>
  <g clip-path="url(#clippath-1)">
    <path d="M10.7,15.1l-2.5,2.5c-3.2,3.1-7.8-1.5-4.8-4.8l3-3c1.5-1.5,4.2-1.2,5.3.7.3.5.9.6,1.3.3,1-.6.2-1.8-.5-2.4-2.1-2.1-5.4-2.1-7.5,0l-3,3c-3.3,3.3-.9,9.1,3.8,9,1.4,0,2.7-.5,3.8-1.5l2.5-2.5c.9-.9-.5-2.3-1.4-1.4Z" fill="#fff"/>
  </g>
</svg>