<?xml version="1.0" encoding="UTF-8"?>
<svg id="Layer_1" xmlns="http://www.w3.org/2000/svg" xmlns:xlink="http://www.w3.org/1999/xlink" version="1.1" viewBox="0 0 21.8 15.8">
  <!-- Generator: Adobe Illustrator 29.0.0, SVG Export Plug-In . SVG Version: 2.1.0 Build 186)  -->
  <defs>
    <style>
      .st0 {
        fill: none;
      }

      .st1 {
        clip-path: url(#clippath-1);
      }

      .st2 {
        fill: #19364e;
      }

      .st3 {
        clip-path: url(#clippath);
      }
    </style>
    <clipPath id="clippath">
      <rect class="st0" width="21.3" height="8.5"/>
    </clipPath>
    <clipPath id="clippath-1">
      <rect class="st0" y="1.8" width="21.8" height="14"/>
    </clipPath>
  </defs>
  <g class="st3">
    <path class="st2" d="M9.4,7.9c.4.3.9.5,1.4.5s1-.2,1.4-.5L21.1,1C20.7.3,20,0,19.2,0H2.3C1.9,0,1.5,0,1.2.3c-.3.2-.6.5-.8.8l9,6.9Z"/>
  </g>
  <g class="st1">
    <path class="st2" d="M13.1,9.2c-.3.3-.7.5-1.1.6-.4.1-.8.2-1.2.2s-.8,0-1.2-.2c-.4-.1-.8-.3-1.1-.6L0,2.8v10.3c0,.3,0,.6.2.9.1.3.3.5.5.8.2.2.5.4.8.5.3.1.6.2.9.2h16.9c.3,0,.6,0,.9-.2.3-.1.5-.3.8-.5.2-.2.4-.5.5-.8.1-.3.2-.6.2-.9V2.6l-8.4,6.6Z"/>
  </g>
</svg>