<svg width="38" height="38" viewBox="0 0 38 38" fill="none" xmlns="http://www.w3.org/2000/svg">
<path d="M8.89265 31.6668C8.16326 31.6668 7.55473 31.423 7.06707 30.9353C6.5794 30.4477 6.33504 29.8386 6.33398 29.1082V8.89216C6.33398 8.16277 6.57835 7.55425 7.06707 7.06658C7.55579 6.57891 8.16432 6.33455 8.89265 6.3335H19.0307V7.91683H8.89265C8.64882 7.91683 8.42504 8.01816 8.22132 8.22083C8.0176 8.4235 7.91626 8.64727 7.91732 8.89216V29.1097C7.91732 29.3525 8.01865 29.5758 8.22132 29.7795C8.42398 29.9832 8.64723 30.0846 8.89107 30.0835H19.0307V31.6668H8.89265ZM26.0655 24.6036L24.954 23.4636L28.6257 19.7918H14.5547V18.2085H28.6257L24.9524 14.5352L26.0639 13.3983L31.6673 19.0002L26.0655 24.6036Z" fill="#4A6B8B"/>
</svg>
