<svg width="44" height="44" viewBox="0 0 44 44" fill="none" xmlns="http://www.w3.org/2000/svg">
<path d="M22 1C10.4206 1 1 10.4206 1 22C1 33.5794 10.4206 43 22 43C33.5794 43 43 33.5794 43 22C43 10.4206 33.5794 1 22 1ZM22 40.5391C11.7775 40.5391 3.46094 32.2225 3.46094 22C3.46094 11.7775 11.7775 3.46094 22 3.46094C32.2225 3.46094 40.5391 11.7775 40.5391 22C40.5391 32.2225 32.2225 40.5391 22 40.5391Z" fill="#E6F1FF" stroke="#E6F1FF" stroke-width="0.8"/>
<path d="M22 23.1484C26.7494 23.1484 30.6133 19.2845 30.6133 14.5352C30.6133 9.78579 26.7494 5.92188 22 5.92188C17.2506 5.92188 13.3867 9.78579 13.3867 14.5352C13.3867 19.2845 17.2506 23.1484 22 23.1484ZM22 8.38281C25.3924 8.38281 28.1523 11.1428 28.1523 14.5352C28.1523 17.9276 25.3924 20.6875 22 20.6875C18.6076 20.6875 15.8477 17.9276 15.8477 14.5352C15.8477 11.1428 18.6076 8.38281 22 8.38281Z" fill="#E6F1FF" stroke="#E6F1FF" stroke-width="0.8"/>
<path d="M35.8343 28.5173C34.1991 26.6695 31.8475 25.6099 29.3826 25.6099H14.617C12.152 25.6099 9.8004 26.6695 8.16527 28.5173L7.58203 29.1764L8.01729 29.9414C10.8734 34.9606 16.2312 38.0786 21.9998 38.0786C27.7684 38.0786 33.1262 34.9606 35.9823 29.9413L36.4176 29.1763L35.8343 28.5173ZM21.9998 35.6177C17.4277 35.6177 13.16 33.3046 10.648 29.5232C11.7515 28.5919 13.1565 28.0708 14.617 28.0708H29.3826C30.8431 28.0708 32.248 28.5919 33.3515 29.5232C30.8395 33.3046 26.5719 35.6177 21.9998 35.6177Z" fill="#E6F1FF" stroke="#E6F1FF" stroke-width="0.8"/>
</svg>
