<svg width="14" height="14" viewBox="0 0 14 14" fill="none" xmlns="http://www.w3.org/2000/svg">
<g clip-path="url(#clip0_2083_1414)">
<path d="M7.00008 13.0578C10.3456 13.0578 13.0578 10.3456 13.0578 7.00008C13.0578 3.6545 10.3456 0.942383 7.00008 0.942383C3.6545 0.942383 0.942383 3.6545 0.942383 7.00008C0.942383 10.3456 3.6545 13.0578 7.00008 13.0578Z" stroke="#1D3247" stroke-linecap="round" stroke-linejoin="round"/>
<path d="M9.01893 5.6543L6.32662 8.3466L4.98047 7.00045" stroke="#1D3247" stroke-linecap="round" stroke-linejoin="round"/>
</g>
<defs>
<clipPath id="clip0_2083_1414">
<rect width="14" height="14" fill="white"/>
</clipPath>
</defs>
</svg>
