<svg width="41" height="41" viewBox="0 0 41 41" fill="none" xmlns="http://www.w3.org/2000/svg">
<circle cx="20.5" cy="20.5" r="20.5" fill="black" fill-opacity="0.6"/>
<path fill-rule="evenodd" clip-rule="evenodd" d="M17.417 11.417C16.861 11.9729 16.861 12.8743 17.417 13.4302L24.298 20.3113L17.417 27.1923C16.861 27.7483 16.861 28.6496 17.417 29.2056C17.9729 29.7615 18.8743 29.7615 19.4302 29.2056L27.1719 21.4639C27.2265 21.4231 27.2788 21.378 27.3284 21.3284C27.609 21.0478 27.748 20.6791 27.7453 20.3113C27.748 19.9435 27.6091 19.5748 27.3284 19.2941C27.2788 19.2446 27.2265 19.1994 27.1719 19.1587L19.4302 11.417C18.8743 10.861 17.9729 10.861 17.417 11.417Z" fill="white"/>
</svg>
