<svg width="28" height="27" viewBox="0 0 28 27" fill="none" xmlns="http://www.w3.org/2000/svg">
<path d="M5.04508 11.6895V19.93H4.01502C3.87852 19.928 3.74301 19.9533 3.61634 20.0042C3.48968 20.0551 3.37439 20.1306 3.27718 20.2265C3.17998 20.3223 3.10279 20.4365 3.0501 20.5624C2.99742 20.6884 2.97029 20.8235 2.97029 20.96C2.97029 21.0965 2.99742 21.2317 3.0501 21.3576C3.10279 21.4836 3.17998 21.5978 3.27718 21.6936C3.37439 21.7894 3.48968 21.865 3.61634 21.9159C3.74301 21.9668 3.87852 21.992 4.01502 21.9901H24.6163C24.7528 21.992 24.8883 21.9668 25.015 21.9159C25.1417 21.865 25.2569 21.7894 25.3541 21.6936C25.4514 21.5978 25.5285 21.4836 25.5812 21.3576C25.6339 21.2317 25.661 21.0965 25.661 20.96C25.661 20.8235 25.6339 20.6884 25.5812 20.5624C25.5285 20.4365 25.4514 20.3223 25.3541 20.2265C25.2569 20.1306 25.1417 20.0551 25.015 20.0042C24.8883 19.9533 24.7528 19.928 24.6163 19.93H23.5862V11.6895H21.5261V19.93H19.466V11.6895H17.4059V19.93H15.3457V11.6895H13.2856V19.93H11.2255V11.6895H9.16534V15.8097V19.93H7.10521V11.6895H5.04508ZM1.95489 24.0502C1.8184 24.0483 1.68288 24.0735 1.55621 24.1244C1.42955 24.1753 1.31426 24.2509 1.21705 24.3467C1.11985 24.4426 1.04266 24.5568 0.989973 24.6827C0.937287 24.8086 0.910156 24.9438 0.910156 25.0803C0.910156 25.2168 0.937287 25.3519 0.989973 25.4779C1.04266 25.6038 1.11985 25.718 1.21705 25.8139C1.31426 25.9097 1.42955 25.9853 1.55621 26.0362C1.68288 26.0871 1.8184 26.1123 1.95489 26.1104H26.6764C26.8129 26.1123 26.9485 26.0871 27.0751 26.0362C27.2018 25.9853 27.3171 25.9097 27.4143 25.8139C27.5115 25.718 27.5887 25.6038 27.6414 25.4779C27.694 25.3519 27.7212 25.2168 27.7212 25.0803C27.7212 24.9438 27.694 24.8086 27.6414 24.6827C27.5887 24.5568 27.5115 24.4426 27.4143 24.3467C27.3171 24.2509 27.2018 24.1753 27.0751 24.1244C26.9485 24.0735 26.8129 24.0483 26.6764 24.0502H1.95489Z" fill="#4A6B8B"/>
<path d="M14.3159 1.38867C14.1459 1.38879 13.9787 1.43095 13.829 1.51139C13.827 1.51273 13.825 1.51407 13.8229 1.51542L2.59082 7.64752C2.40263 7.7255 2.24179 7.85753 2.12863 8.02691C2.01548 8.19629 1.95508 8.39542 1.95508 8.59912C1.95508 8.87231 2.0636 9.13431 2.25678 9.32749C2.44995 9.52066 2.71195 9.62919 2.98514 9.62919H14.3159H25.6466C25.9197 9.62919 26.1818 9.52066 26.3749 9.32749C26.5681 9.13431 26.6766 8.87231 26.6766 8.59912C26.6762 8.39576 26.6156 8.19707 26.5025 8.02808C26.3894 7.8591 26.2288 7.72738 26.0409 7.64953V7.64752L14.8027 1.51139C14.653 1.43095 14.4858 1.38879 14.3159 1.38867ZM14.3159 4.47887C15.1687 4.47887 15.8609 5.17107 15.8609 6.02396C15.8609 6.87686 15.1687 7.56906 14.3159 7.56906C13.463 7.56906 12.7708 6.87686 12.7708 6.02396C12.7708 5.17107 13.463 4.47887 14.3159 4.47887Z" stroke="#4A6B8B" stroke-width="1.5"/>
</svg>
