<?xml version="1.0" encoding="UTF-8"?>
<svg id="Layer_2" data-name="Layer 2" xmlns="http://www.w3.org/2000/svg" viewBox="0 0 517.2 403.21">
  <defs>
    <style>
      .cls-1 {
        fill: #fff;
      }
    </style>
  </defs>
  <g id="Layer_1-2" data-name="Layer 1">
    <g>
      <path class="cls-1" d="M160.68,403.21l.2-204.79,90.62-92.98V2.2c27.42-7.68,55.88,8.05,82.84-2v53.37c-1.65,1.7-5.17,2.06-7.61,2.37-18.62,2.34-36.35-2.7-54.78-3.86-3.15-.2-6.33.1-9.47,0v55.36l92.62,88.99.2,206.78h-51.9l-.45-87.83c-10.78-45.59-73.2-49.3-87.91-3.97l-.47,91.8h-53.9ZM251.28,146.12c-55.29,6.29-50.36,89.69-2.01,96.23,74.29,10.05,75.43-104.57,2.01-96.23Z"/>
      <path class="cls-1" d="M2.98,403.21c-1.57-2.91-4.72-7.86-1.76-10.74.21-.2,4.97-2.23,5.25-2.23h26.45v-188.53l-27.97-2.47c-5.35-11.67-5.22-22.71,4-31.96,15.56-15.6,35.8-26.69,50.42-43.38h152.21l-63.67,65.54-.2,213.77H2.98ZM71.85,236.62c-.43,2.35-1.74,3.93-2.03,6.46-.48,4.2-.39,38.52.52,40.43,2.65,5.53,24.35,5.37,29.99,5.03,3.86-.23,20.03-2.11,21.25-5.69-.97-12.6,1.85-28.62.21-40.79-.22-1.62-2.29-5.43-3.55-5.43h-46.41ZM75.55,303.67c-1.26.36-5.48,3.7-5.71,5.26,1.26,12.43-1.65,27.94-.04,39.96.45,3.41,3.13,6.04,6.49,6.48,6.88.92,31.15.92,38.03,0,3.43-.46,7.03-4.11,7.49-7.48.95-7.1.93-31.88,0-39.01-.44-3.37-2.16-5.05-5.49-5.49-4.74-.62-37.32-.72-40.76.27Z"/>
      <path class="cls-1" d="M370.27,403.21l-.2-211.77-65.67-67.54h152.21c12.62,15.61,52.01,36.4,58.42,54.33,9.39,26.23-13.6,24.58-31.97,23.48v188.53h29.44c3.66,0,4.01,10.18,3.49,12.97h-145.72ZM445.89,284.26c1.11-1.11,1.14-3.66,1.28-5.21.73-8.54,1.06-28.82.01-37-.53-4.15-2.66-5.14-6.48-5.5-9.27-.88-32.01-1.08-41.04,0-4.23.51-5.12,4.66-5.48,8.49-.76,7.88-.87,26.25.03,33.99.85,7.28,8.43,8.69,14.62,9.33s32.9.08,37.07-4.1ZM399.92,303.66c-2,1.43-5.21,3.91-5.67,6.3-.98,5.11-.83,32.31-.07,37.94.31,2.3,3.08,6.01,5.06,6.91s36.42,1.11,40.46.57c2.3-.31,6.02-3.08,6.92-5.06.99-2.18,1.05-35.98.54-40.4-.42-3.67-1.6-6-5.46-6.51-12.48-1.65-28.85,1.16-41.76.25Z"/>
      <path class="cls-1" d="M252.26,161.06c48.71-6.66,51.75,63.37,9.71,66.56-43.48,3.29-49.15-61.17-9.71-66.56ZM264.47,188.74c.96-3.41-1.94-25.1-8.03-18.23-5.27,5.93-4.12,21.05-.77,28.03,6.74,1.02,21.85,3.29,26.76-2.34,2.01-2.3.93-3.31-1.03-4.92-4.76-3.9-11.27-2.24-16.92-2.54Z"/>
    </g>
  </g>
</svg>