<svg width="12" height="14" viewBox="0 0 12 14" fill="none" xmlns="http://www.w3.org/2000/svg">
<path d="M0.552734 2.31735C0.552734 1.52898 1.19108 0.890625 1.97946 0.890625C2.76783 0.890625 3.40618 1.52898 3.40618 2.31735V11.9509C3.40618 12.7393 2.76783 13.3777 1.97946 13.3777C1.19108 13.3777 0.552734 12.7393 0.552734 11.9509V2.31735ZM8.25962 2.31735C8.25962 1.52898 8.89797 0.890625 9.68634 0.890625C10.4747 0.890625 11.1131 1.52897 11.1131 2.31735V11.9509C11.1131 12.7393 10.4747 13.3777 9.68634 13.3777C8.89797 13.3777 8.25962 12.7393 8.25962 11.9509V2.31735Z" stroke="#1D3247"/>
</svg>
