<svg width="345" height="259" viewBox="0 0 345 259" fill="none" xmlns="http://www.w3.org/2000/svg">
<rect width="345" height="258.95" fill="#F5F5F5"/>
<path d="M111.298 116.003V170.405H104.498C103.596 170.392 102.702 170.559 101.866 170.895C101.029 171.231 100.268 171.73 99.6266 172.362C98.9848 172.995 98.4752 173.749 98.1274 174.58C97.7796 175.412 97.6005 176.304 97.6005 177.205C97.6005 178.106 97.7796 178.999 98.1274 179.83C98.4752 180.661 98.9848 181.415 99.6266 182.048C100.268 182.681 101.029 183.18 101.866 183.516C102.702 183.852 103.596 184.018 104.498 184.005H240.502C241.404 184.018 242.298 183.852 243.134 183.516C243.971 183.18 244.732 182.681 245.373 182.048C246.015 181.415 246.525 180.661 246.873 179.83C247.22 178.999 247.4 178.106 247.4 177.205C247.4 176.304 247.22 175.412 246.873 174.58C246.525 173.749 246.015 172.995 245.373 172.362C244.732 171.73 243.971 171.231 243.134 170.895C242.298 170.559 241.404 170.392 240.502 170.405H233.702V116.003H220.102V170.405H206.501V116.003H192.901V170.405H179.3V116.003H165.7V170.405H152.099V116.003H138.499V143.204V170.405H124.898V116.003H111.298ZM90.8971 197.606C89.996 197.593 89.1013 197.76 88.2651 198.096C87.4289 198.432 86.6678 198.93 86.0261 199.563C85.3843 200.196 84.8747 200.95 84.5269 201.781C84.1791 202.613 84 203.505 84 204.406C84 205.307 84.1791 206.199 84.5269 207.031C84.8747 207.862 85.3843 208.616 86.0261 209.249C86.6678 209.882 87.4289 210.381 88.2651 210.717C89.1013 211.053 89.996 211.219 90.8971 211.206H254.103C255.004 211.219 255.899 211.053 256.735 210.717C257.571 210.381 258.332 209.882 258.974 209.249C259.616 208.616 260.125 207.862 260.473 207.031C260.821 206.199 261 205.307 261 204.406C261 203.505 260.821 202.613 260.473 201.781C260.125 200.95 259.616 200.196 258.974 199.563C258.332 198.93 257.571 198.432 256.735 198.096C255.899 197.76 255.004 197.593 254.103 197.606H90.8971Z" fill="#BEC2CE"/>
<path d="M172.5 48C171.378 48.0008 170.274 48.2791 169.285 48.8102C169.272 48.819 169.259 48.8278 169.246 48.8367L95.0938 89.3194C93.8514 89.8342 92.7896 90.7059 92.0425 91.8241C91.2955 92.9423 90.8967 94.2569 90.8967 95.6017C90.8967 97.4052 91.6132 99.1349 92.8885 100.41C94.1638 101.685 95.8934 102.402 97.697 102.402H172.5H247.302C249.106 102.402 250.835 101.685 252.111 100.41C253.386 99.1349 254.103 97.4052 254.103 95.6017C254.1 94.2592 253.7 92.9474 252.953 91.8318C252.206 90.7162 251.146 89.8467 249.906 89.3327V89.3194L175.714 48.8102C174.726 48.2791 173.621 48.0008 172.5 48ZM172.5 68.4007C178.13 68.4007 182.7 72.9705 182.7 78.6011C182.7 84.2317 178.13 88.8015 172.5 88.8015C166.869 88.8015 162.299 84.2317 162.299 78.6011C162.299 72.9705 166.869 68.4007 172.5 68.4007Z" stroke="#BEC2CE" stroke-width="11"/>
</svg>
