<?xml version="1.0" encoding="UTF-8"?>
<svg id="Layer_1" xmlns="http://www.w3.org/2000/svg" xmlns:xlink="http://www.w3.org/1999/xlink" version="1.1" viewBox="0 0 33.4 33.4">
  <!-- Generator: Adobe Illustrator 29.0.0, SVG Export Plug-In . SVG Version: 2.1.0 Build 186)  -->
  <defs>
    <clipPath id="clippath">
      <rect width="33.4" height="33.4" fill="none"/>
    </clipPath>
  </defs>
  <g clip-path="url(#clippath)">
    <path d="M33.5,16.7C33.5,7.4,26-.1,16.7-.1S-.1,7.4-.1,16.7s7.5,16.8,16.8,16.8,16.8-7.5,16.8-16.8ZM8.2,15l2.5-2.5,6,6,6-6,2.5,2.5-8.5,8.5-8.5-8.5Z" fill="#fff"/>
  </g>
</svg>